{
    "interactionModel": {
        "languageModel": {
            "invocationName": "drone",
            "intents": [
                {
                    "name": "AMAZON.CancelIntent",
                    "samples": []
                },
                {
                    "name": "AMAZON.HelpIntent",
                    "samples": []
                },
                {
                    "name": "AMAZON.StopIntent",
                    "samples": []
                },
                {
                    "name": "ClassifyImage",
                    "slots": [],
                    "samples": [
                        "Classify image",
                        "Classify the image",
                        "Classify this image",
                        "Classify that image",
                        "Classify picture",
                        "Classify the picture",
                        "Classify this picture",
                        "Classify that picture"
                    ]
                },
                {
                    "name": "End",
                    "slots": [],
                    "samples": [
                        "Quit the drone skill",
                        "Quit drone skill",
                        "Quit the drone",
                        "Quit drone",
                        "Quit it",
                        "Quit ",
                        "Close the drone skill",
                        "Close drone skill",
                        "Close the drone",
                        "Close drone",
                        "Close it",
                        "Close",
                        "End the drone skill",
                        "End drone skill",
                        "End the drone",
                        "End drone",
                        "End it",
                        "End"
                    ]
                },
                {
                    "name": "HidePicture",
                    "slots": [],
                    "samples": [
                        "Close the picture",
                        "Close picture",
                        "Hide the picture",
                        "Hide picture"
                    ]
                },
                {
                    "name": "HideVideo",
                    "slots": [],
                    "samples": [
                        "Close the video",
                        "Close video",
                        "Hide the video",
                        "Hide video"
                    ]
                },
                {
                    "name": "Hover",
                    "slots": [],
                    "samples": [
                        "Stop the drone ",
                        "Stop drone",
                        "Stop it",
                        "Stop",
                        "Hover the drone",
                        "Hover drone",
                        "Hover it",
                        "Hover"
                    ]
                },
                {
                    "name": "Land",
                    "slots": [],
                    "samples": [
                        "Land the drone",
                        "Land drone",
                        "Land it",
                        "Land"
                    ]
                },
                {
                    "name": "MoveBackward",
                    "slots": [],
                    "samples": [
                        "Go backward",
                        "Go back",
                        "Move the drone backward",
                        "Move drone backward",
                        "Move it backward",
                        "Move backward"
                    ]
                },
                {
                    "name": "MoveBackwardFor",
                    "slots": [
                        {
                            "name": "duration",
                            "type": "AMAZON.NUMBER",
                            "samples": [
                                "For {duration}",
                                "{duration}"
                            ]
                        }
                    ],
                    "samples": [
                        "Go backward for {duration} seconds",
                        "Go backward for {duration} second",
                        "Go backward for {duration}",
                        "Go back for {duration} seconds",
                        "Go back for {duration} second",
                        "Go back for {duration}",
                        "Move the drone backward for {duration} seconds",
                        "Move the drone backward for {duration} second",
                        "Move the drone backward for {duration}",
                        "Move drone backward for {duration} seconds",
                        "Move drone backward for {duration} second",
                        "Move drone backward for {duration}",
                        "Move it backward for {duration} seconds",
                        "Move it backward for {duration} second",
                        "Move it backward for {duration}",
                        "Move backward for {duration} seconds",
                        "Move backward for {duration} second",
                        "Move backward for {duration}"
                    ]
                },
                {
                    "name": "MoveDown",
                    "slots": [],
                    "samples": [
                        "Go lower",
                        "Go down",
                        "Lower the drone",
                        "Lower drone",
                        "Lower it",
                        "Lower",
                        "Move the drone down",
                        "Move drone down",
                        "Move it down",
                        "Move down"
                    ]
                },
                {
                    "name": "MoveDownFor",
                    "slots": [
                        {
                            "name": "duration",
                            "type": "AMAZON.NUMBER",
                            "samples": [
                                "For {duration}",
                                "{duration}"
                            ]
                        }
                    ],
                    "samples": [
                        "Go lower for {duration} seconds",
                        "Go lower for {duration} second",
                        "Go lower for {duration}",
                        "Go down for {duration} seconds",
                        "Go down for {duration} second",
                        "Go down for {duration}",
                        "Lower the drone for {duration} seconds",
                        "Lower the drone for {duration} second",
                        "Lower the drone for {duration}",
                        "Lower drone for {duration} seconds",
                        "Lower drone for {duration} second",
                        "Lower drone for {duration}",
                        "Lower it for {duration} seconds",
                        "Lower it for {duration} second",
                        "Lower it for {duration}",
                        "Lower for {duration} seconds",
                        "Lower for {duration} second",
                        "Lower for {duration}",
                        "Move the drone down for {duration} seconds",
                        "Move the drone down for {duration} second",
                        "Move the drone down for {duration}",
                        "Move drone down for {duration} seconds",
                        "Move drone down for {duration} second",
                        "Move drone down for {duration}",
                        "Move it down for {duration} seconds",
                        "Move it down for {duration} second",
                        "Move it down for {duration}",
                        "Move down for {duration} seconds",
                        "Move down for {duration} second",
                        "Move down for {duration}"
                    ]
                },
                {
                    "name": "MoveForward",
                    "slots": [],
                    "samples": [
                        "Go forward",
                        "Move the drone forward",
                        "Move drone forward",
                        "Move it forward",
                        "Move forward"
                    ]
                },
                {
                    "name": "MoveForwardFor",
                    "slots": [
                        {
                            "name": "duration",
                            "type": "AMAZON.NUMBER",
                            "samples": [
                                "For {duration}",
                                "{duration}"
                            ]
                        }
                    ],
                    "samples": [
                        "Go forward for {duration} seconds",
                        "Go forward for {duration} second",
                        "Go forward for {duration}",
                        "Move the drone forward for {duration} seconds",
                        "Move the drone forward for {duration} second",
                        "Move the drone forward for {duration}",
                        "Move drone forward for {duration} seconds",
                        "Move drone forward for {duration} second",
                        "Move drone forward for {duration}",
                        "Move it forward for {duration} seconds",
                        "Move it forward for {duration} second",
                        "Move it forward for {duration}",
                        "Move forward for {duration} seconds",
                        "Move forward for {duration} second",
                        "Move forward for {duration}"
                    ]
                },
                {
                    "name": "MoveLeft",
                    "slots": [],
                    "samples": [
                        "Go left",
                        "Move the drone left",
                        "Move drone left",
                        "Move it left",
                        "Move left"
                    ]
                },
                {
                    "name": "MoveLeftFor",
                    "slots": [
                        {
                            "name": "duration",
                            "type": "AMAZON.NUMBER",
                            "samples": [
                                "For {duration}",
                                "{duration}"
                            ]
                        }
                    ],
                    "samples": [
                        "Go left for {duration} seconds",
                        "Go left for {duration} second",
                        "Go left for {duration}",
                        "Move the drone left for {duration} seconds",
                        "Move the drone left for {duration} second",
                        "Move the drone left for {duration}",
                        "Move drone left for {duration} seconds",
                        "Move drone left for {duration} second",
                        "Move drone left for {duration}",
                        "Move it left for {duration} seconds",
                        "Move it left for {duration} second",
                        "Move it left for {duration}",
                        "Move left for {duration} seconds",
                        "Move left for {duration} second",
                        "Move left for {duration}"
                    ]
                },
                {
                    "name": "MoveRight",
                    "slots": [],
                    "samples": [
                        "Go right",
                        "Move the drone right",
                        "Move drone right",
                        "Move it right",
                        "Move right"
                    ]
                },
                {
                    "name": "MoveRightFor",
                    "slots": [
                        {
                            "name": "duration",
                            "type": "AMAZON.NUMBER",
                            "samples": [
                                "For {duration}",
                                "{duration}"
                            ]
                        }
                    ],
                    "samples": [
                        "Go right for {duration} seconds",
                        "Go right for {duration} second",
                        "Go right for {duration}",
                        "Move the drone right for {duration} seconds",
                        "Move the drone right for {duration} second",
                        "Move the drone right for {duration}",
                        "Move drone right for {duration} seconds",
                        "Move drone right for {duration} second",
                        "Move drone right for {duration}",
                        "Move it right for {duration} seconds",
                        "Move it right for {duration} second",
                        "Move it right for {duration}",
                        "Move right for {duration} seconds",
                        "Move right for {duration} second",
                        "Move right for {duration}"
                    ]
                },
                {
                    "name": "MoveUp",
                    "slots": [],
                    "samples": [
                        "Go higher",
                        "Go up",
                        "Rise the drone",
                        "Rise drone",
                        "Rise it",
                        "Rise",
                        "Move the drone up",
                        "Move drone up",
                        "Move it up",
                        "Move up"
                    ]
                },
                {
                    "name": "MoveUpFor",
                    "slots": [
                        {
                            "name": "duration",
                            "type": "AMAZON.NUMBER",
                            "samples": [
                                "For {duration}",
                                "{duration}"
                            ]
                        }
                    ],
                    "samples": [
                        "Go higher for {duration} seconds",
                        "Go higher for {duration} second",
                        "Go higher for {duration}",
                        "Go up for {duration} seconds",
                        "Go up for {duration} second",
                        "Go up for {duration}",
                        "Rise the drone for {duration} seconds",
                        "Rise the drone for {duration} second",
                        "Rise the drone for {duration}",
                        "Rise drone for {duration} seconds",
                        "Rise drone for {duration} second",
                        "Rise drone for {duration}",
                        "Rise it for {duration} seconds",
                        "Rise it for {duration} second",
                        "Rise it for {duration}",
                        "Rise for {duration} seconds",
                        "Rise for {duration} second",
                        "Rise for {duration}",
                        "Move the drone up for {duration} seconds",
                        "Move the drone up for {duration} second",
                        "Move the drone up for {duration}",
                        "Move drone up for {duration} seconds",
                        "Move drone up for {duration} second",
                        "Move drone up for {duration}",
                        "Move it up for {duration} seconds",
                        "Move it up for {duration} second",
                        "Move it up for {duration}",
                        "Move up for {duration} seconds",
                        "Move up for {duration} second",
                        "Move up for {duration}"
                    ]
                },
                {
                    "name": "ReadClassification",
                    "slots": [],
                    "samples": [
                        "Read classification",
                        "Read the classification"
                    ]
                },
                {
                    "name": "ShowPicture",
                    "slots": [],
                    "samples": [
                        "Open the picture",
                        "Open picture",
                        "Show the picture",
                        "Show picture"
                    ]
                },
                {
                    "name": "ShowVideo",
                    "slots": [],
                    "samples": [
                        "Open the video",
                        "Open video",
                        "Show the video",
                        "Show video"
                    ]
                },
                {
                    "name": "TakeAPicture",
                    "slots": [],
                    "samples": [
                        "Capture another image",
                        "Capture another photo",
                        "Capture another picture",
                        "Take another image",
                        "Take another photo",
                        "Take another picture",
                        "Capture an image",
                        "Capture image",
                        "Capture a photo",
                        "Capture photo",
                        "Capture a picture",
                        "Capture picture",
                        "Take an image",
                        "Take image",
                        "Take a photo",
                        "Take photo",
                        "Take a picture",
                        "Take picture"
                    ]
                },
                {
                    "name": "Takeoff",
                    "slots": [],
                    "samples": [
                        "Take off"
                    ]
                },
                {
                    "name": "TurnLeft",
                    "slots": [],
                    "samples": [
                        "Turn the drone left",
                        "Turn drone left",
                        "Turn it left",
                        "Turn left"
                    ]
                },
                {
                    "name": "TurnLeftFor",
                    "slots": [
                        {
                            "name": "duration",
                            "type": "AMAZON.NUMBER",
                            "samples": [
                                "For {duration}",
                                "{duration}"
                            ]
                        }
                    ],
                    "samples": [
                        "Turn the drone left for {duration} seconds",
                        "Turn the drone left for {duration} second",
                        "Turn the drone left for {duration}",
                        "Turn drone left for {duration} seconds",
                        "Turn drone left for {duration} second",
                        "Turn drone left for {duration}",
                        "Turn it left for {duration} seconds",
                        "Turn it left for {duration} second",
                        "Turn it left for {duration}",
                        "Turn left for {duration} seconds",
                        "Turn left for {duration} second",
                        "Turn left for {duration}"
                    ]
                },
                {
                    "name": "TurnRight",
                    "slots": [],
                    "samples": [
                        "Turn the drone right",
                        "Turn drone right",
                        "Turn it right",
                        "Turn right"
                    ]
                },
                {
                    "name": "TurnRightFor",
                    "slots": [
                        {
                            "name": "duration",
                            "type": "AMAZON.NUMBER",
                            "samples": [
                                "For {duration}",
                                "{duration}"
                            ]
                        }
                    ],
                    "samples": [
                        "Turn the drone right for {duration} seconds",
                        "Turn the drone right for {duration} second",
                        "Turn the drone right for {duration}",
                        "Turn drone right for {duration} seconds",
                        "Turn drone right for {duration} second",
                        "Turn drone right for {duration}",
                        "Turn it right for {duration} seconds",
                        "Turn it right for {duration} second",
                        "Turn it right for {duration}",
                        "Turn right for {duration} seconds",
                        "Turn right for {duration} second",
                        "Turn right for {duration}"
                    ]
                },
                {
                    "name": "Wait",
                    "slots": [],
                    "samples": [
                        "Wait"
                    ]
                }
            ],
            "types": []
        },
        "dialog": {
            "intents": [
                {
                    "name": "MoveBackwardFor",
                    "confirmationRequired": false,
                    "prompts": {},
                    "slots": [
                        {
                            "name": "duration",
                            "type": "AMAZON.NUMBER",
                            "confirmationRequired": false,
                            "elicitationRequired": true,
                            "prompts": {
                                "elicitation": "Elicit.Intent-MoveBackwardFor.IntentSlot-duration"
                            }
                        }
                    ]
                },
                {
                    "name": "MoveDownFor",
                    "confirmationRequired": false,
                    "prompts": {},
                    "slots": [
                        {
                            "name": "duration",
                            "type": "AMAZON.NUMBER",
                            "confirmationRequired": false,
                            "elicitationRequired": true,
                            "prompts": {
                                "elicitation": "Elicit.Intent-MoveDownFor.IntentSlot-duration"
                            }
                        }
                    ]
                },
                {
                    "name": "MoveForwardFor",
                    "confirmationRequired": false,
                    "prompts": {},
                    "slots": [
                        {
                            "name": "duration",
                            "type": "AMAZON.NUMBER",
                            "confirmationRequired": false,
                            "elicitationRequired": true,
                            "prompts": {
                                "elicitation": "Elicit.Intent-MoveForwardFor.IntentSlot-duration"
                            }
                        }
                    ]
                },
                {
                    "name": "MoveLeftFor",
                    "confirmationRequired": false,
                    "prompts": {},
                    "slots": [
                        {
                            "name": "duration",
                            "type": "AMAZON.NUMBER",
                            "confirmationRequired": false,
                            "elicitationRequired": true,
                            "prompts": {
                                "elicitation": "Elicit.Intent-MoveLeftFor.IntentSlot-duration"
                            }
                        }
                    ]
                },
                {
                    "name": "MoveRightFor",
                    "confirmationRequired": false,
                    "prompts": {},
                    "slots": [
                        {
                            "name": "duration",
                            "type": "AMAZON.NUMBER",
                            "confirmationRequired": false,
                            "elicitationRequired": true,
                            "prompts": {
                                "elicitation": "Elicit.Intent-MoveRightFor.IntentSlot-duration"
                            }
                        }
                    ]
                },
                {
                    "name": "MoveUpFor",
                    "confirmationRequired": false,
                    "prompts": {},
                    "slots": [
                        {
                            "name": "duration",
                            "type": "AMAZON.NUMBER",
                            "confirmationRequired": false,
                            "elicitationRequired": true,
                            "prompts": {
                                "elicitation": "Elicit.Intent-MoveUpFor.IntentSlot-duration"
                            }
                        }
                    ]
                },
                {
                    "name": "TurnLeftFor",
                    "confirmationRequired": false,
                    "prompts": {},
                    "slots": [
                        {
                            "name": "duration",
                            "type": "AMAZON.NUMBER",
                            "confirmationRequired": false,
                            "elicitationRequired": true,
                            "prompts": {
                                "elicitation": "Elicit.Intent-TurnLeftFor.IntentSlot-duration"
                            }
                        }
                    ]
                },
                {
                    "name": "TurnRightFor",
                    "confirmationRequired": false,
                    "prompts": {},
                    "slots": [
                        {
                            "name": "duration",
                            "type": "AMAZON.NUMBER",
                            "confirmationRequired": false,
                            "elicitationRequired": true,
                            "prompts": {
                                "elicitation": "Elicit.Intent-TurnRightFor.IntentSlot-duration"
                            }
                        }
                    ]
                }
            ]
        },
        "prompts": [
            {
                "id": "Elicit.Intent-MoveBackwardFor.IntentSlot-duration",
                "variations": [
                    {
                        "type": "PlainText",
                        "value": "How long?"
                    },
                    {
                        "type": "PlainText",
                        "value": "For how long?"
                    }
                ]
            },
            {
                "id": "Elicit.Intent-MoveDownFor.IntentSlot-duration",
                "variations": [
                    {
                        "type": "PlainText",
                        "value": "How long?"
                    },
                    {
                        "type": "PlainText",
                        "value": "For how long?"
                    }
                ]
            },
            {
                "id": "Elicit.Intent-MoveForwardFor.IntentSlot-duration",
                "variations": [
                    {
                        "type": "PlainText",
                        "value": "How long?"
                    },
                    {
                        "type": "PlainText",
                        "value": "For how long?"
                    }
                ]
            },
            {
                "id": "Elicit.Intent-MoveLeftFor.IntentSlot-duration",
                "variations": [
                    {
                        "type": "PlainText",
                        "value": "How long?"
                    },
                    {
                        "type": "PlainText",
                        "value": "For how long?"
                    }
                ]
            },
            {
                "id": "Elicit.Intent-MoveRightFor.IntentSlot-duration",
                "variations": [
                    {
                        "type": "PlainText",
                        "value": "How long?"
                    },
                    {
                        "type": "PlainText",
                        "value": "For how long?"
                    }
                ]
            },
            {
                "id": "Elicit.Intent-MoveUpFor.IntentSlot-duration",
                "variations": [
                    {
                        "type": "PlainText",
                        "value": "How long?"
                    },
                    {
                        "type": "PlainText",
                        "value": "For how long?"
                    }
                ]
            },
            {
                "id": "Elicit.Intent-TurnLeftFor.IntentSlot-duration",
                "variations": [
                    {
                        "type": "PlainText",
                        "value": "How long?"
                    },
                    {
                        "type": "PlainText",
                        "value": "For how long?"
                    }
                ]
            },
            {
                "id": "Elicit.Intent-TurnRightFor.IntentSlot-duration",
                "variations": [
                    {
                        "type": "PlainText",
                        "value": "How long?"
                    },
                    {
                        "type": "PlainText",
                        "value": "For how long?"
                    }
                ]
            }
        ]
    }
}
